%YAML 1.1
%TAG !u! tag:unity3d.com,2011:
--- !u!74 &7400000
AnimationClip:
  m_ObjectHideFlags: 0
  m_PrefabParentObject: {fileID: 0}
  m_PrefabInternal: {fileID: 0}
  m_Name: sun moving
  serializedVersion: 6
  m_Legacy: 0
  m_Compressed: 0
  m_UseHighQualityCurve: 1
  m_RotationCurves: []
  m_CompressedRotationCurves: []
  m_EulerCurves:
  - curve:
      serializedVersion: 2
      m_Curve:
      - serializedVersion: 2
        time: 0
        value: {x: -14.471001, y: -83.33501, z: -6.479}
        inSlope: {x: 0, y: 0, z: 0}
        outSlope: {x: 0, y: 0, z: 0}
        tangentMode: 0
      - serializedVersion: 2
        time: 4.571429
        value: {x: -12.951, y: -143.55801, z: 9.176001}
        inSlope: {x: 0.48363653, y: -9.553488, z: 1.8420342}
        outSlope: {x: 0.48363653, y: -9.553488, z: 1.8420342}
        tangentMode: 0
      - serializedVersion: 2
        time: 12.571428
        value: {x: 5.005, y: -203.43599, z: 16.678001}
        inSlope: {x: 1.8956262, y: -10.281559, z: 0}
        outSlope: {x: 1.8956262, y: -10.281559, z: 0}
        tangentMode: 0
      - serializedVersion: 2
        time: 19.857143
        value: {x: 16.025002, y: -300.719, z: -6.8510003}
        inSlope: {x: 0, y: 0, z: 0}
        outSlope: {x: 0, y: 0, z: 0}
        tangentMode: 0
      - serializedVersion: 2
        time: 29.571428
        value: {x: 5.005, y: -203.43599, z: 16.678001}
        inSlope: {x: -1.4283946, y: 7.7473726, z: 0}
        outSlope: {x: -1.4283946, y: 7.7473726, z: 0}
        tangentMode: 0
      - serializedVersion: 2
        time: 40.142857
        value: {x: -12.951, y: -143.55801, z: 9.176001}
        inSlope: {x: -0.32000008, y: 6.3211036, z: -1.2187895}
        outSlope: {x: -0.32000008, y: 6.3211036, z: -1.2187895}
        tangentMode: 0
      - serializedVersion: 2
        time: 48.57143
        value: {x: -14.471001, y: -83.33501, z: -6.479}
        inSlope: {x: 0, y: 0, z: 0}
        outSlope: {x: 0, y: 0, z: 0}
        tangentMode: 0
      m_PreInfinity: 2
      m_PostInfinity: 2
      m_RotationOrder: 4
    path: 
  m_PositionCurves: []
  m_ScaleCurves: []
  m_FloatCurves: []
  m_PPtrCurves: []
  m_SampleRate: 7
  m_WrapMode: 0
  m_Bounds:
    m_Center: {x: 0, y: 0, z: 0}
    m_Extent: {x: 0, y: 0, z: 0}
  m_ClipBindingConstant:
    genericBindings:
    - serializedVersion: 2
      path: 0
      attribute: 4
      script: {fileID: 0}
      typeID: 4
      customType: 4
      isPPtrCurve: 0
    pptrCurveMapping: []
  m_AnimationClipSettings:
    serializedVersion: 2
    m_AdditiveReferencePoseClip: {fileID: 0}
    m_AdditiveReferencePoseTime: 0
    m_StartTime: 0
    m_StopTime: 48.57143
    m_OrientationOffsetY: 0
    m_Level: 0
    m_CycleOffset: 0
    m_HasAdditiveReferencePose: 0
    m_LoopTime: 1
    m_LoopBlend: 0
    m_LoopBlendOrientation: 0
    m_LoopBlendPositionY: 0
    m_LoopBlendPositionXZ: 0
    m_KeepOriginalOrientation: 0
    m_KeepOriginalPositionY: 1
    m_KeepOriginalPositionXZ: 0
    m_HeightFromFeet: 0
    m_Mirror: 0
  m_EditorCurves:
  - curve:
      serializedVersion: 2
      m_Curve:
      - serializedVersion: 2
        time: 0
        value: -14.471001
        inSlope: 0
        outSlope: 0
        tangentMode: 136
      - serializedVersion: 2
        time: 4.571429
        value: -12.951
        inSlope: 0.48363653
        outSlope: 0.48363653
        tangentMode: 136
      - serializedVersion: 2
        time: 12.571428
        value: 5.005
        inSlope: 1.8956262
        outSlope: 1.8956262
        tangentMode: 136
      - serializedVersion: 2
        time: 19.857143
        value: 16.025002
        inSlope: 0
        outSlope: 0
        tangentMode: 136
      - serializedVersion: 2
        time: 29.571428
        value: 5.005
        inSlope: -1.4283946
        outSlope: -1.4283946
        tangentMode: 136
      - serializedVersion: 2
        time: 40.142857
        value: -12.951
        inSlope: -0.32000008
        outSlope: -0.32000008
        tangentMode: 136
      - serializedVersion: 2
        time: 48.57143
        value: -14.471001
        inSlope: 0
        outSlope: 0
        tangentMode: 136
      m_PreInfinity: 2
      m_PostInfinity: 2
      m_RotationOrder: 4
    attribute: localEulerAnglesRaw.x
    path: 
    classID: 4
    script: {fileID: 0}
  - curve:
      serializedVersion: 2
      m_Curve:
      - serializedVersion: 2
        time: 0
        value: -83.33501
        inSlope: 0
        outSlope: 0
        tangentMode: 136
      - serializedVersion: 2
        time: 4.571429
        value: -143.55801
        inSlope: -9.553488
        outSlope: -9.553488
        tangentMode: 136
      - serializedVersion: 2
        time: 12.571428
        value: -203.43599
        inSlope: -10.281559
        outSlope: -10.281559
        tangentMode: 136
      - serializedVersion: 2
        time: 19.857143
        value: -300.719
        inSlope: 0
        outSlope: 0
        tangentMode: 136
      - serializedVersion: 2
        time: 29.571428
        value: -203.43599
        inSlope: 7.7473726
        outSlope: 7.7473726
        tangentMode: 136
      - serializedVersion: 2
        time: 40.142857
        value: -143.55801
        inSlope: 6.3211036
        outSlope: 6.3211036
        tangentMode: 136
      - serializedVersion: 2
        time: 48.57143
        value: -83.33501
        inSlope: 0
        outSlope: 0
        tangentMode: 136
      m_PreInfinity: 2
      m_PostInfinity: 2
      m_RotationOrder: 4
    attribute: localEulerAnglesRaw.y
    path: 
    classID: 4
    script: {fileID: 0}
  - curve:
      serializedVersion: 2
      m_Curve:
      - serializedVersion: 2
        time: 0
        value: -6.479
        inSlope: 0
        outSlope: 0
        tangentMode: 136
      - serializedVersion: 2
        time: 4.571429
        value: 9.176001
        inSlope: 1.8420342
        outSlope: 1.8420342
        tangentMode: 136
      - serializedVersion: 2
        time: 12.571428
        value: 16.678001
        inSlope: 0
        outSlope: 0
        tangentMode: 136
      - serializedVersion: 2
        time: 19.857143
        value: -6.8510003
        inSlope: 0
        outSlope: 0
        tangentMode: 136
      - serializedVersion: 2
        time: 29.571428
        value: 16.678001
        inSlope: 0
        outSlope: 0
        tangentMode: 136
      - serializedVersion: 2
        time: 40.142857
        value: 9.176001
        inSlope: -1.2187895
        outSlope: -1.2187895
        tangentMode: 136
      - serializedVersion: 2
        time: 48.57143
        value: -6.479
        inSlope: 0
        outSlope: 0
        tangentMode: 136
      m_PreInfinity: 2
      m_PostInfinity: 2
      m_RotationOrder: 4
    attribute: localEulerAnglesRaw.z
    path: 
    classID: 4
    script: {fileID: 0}
  m_EulerEditorCurves:
  - curve:
      serializedVersion: 2
      m_Curve: []
      m_PreInfinity: 2
      m_PostInfinity: 2
      m_RotationOrder: 4
    attribute: m_LocalEulerAngles.x
    path: 
    classID: 4
    script: {fileID: 0}
  - curve:
      serializedVersion: 2
      m_Curve: []
      m_PreInfinity: 2
      m_PostInfinity: 2
      m_RotationOrder: 4
    attribute: m_LocalEulerAngles.y
    path: 
    classID: 4
    script: {fileID: 0}
  - curve:
      serializedVersion: 2
      m_Curve: []
      m_PreInfinity: 2
      m_PostInfinity: 2
      m_RotationOrder: 4
    attribute: m_LocalEulerAngles.z
    path: 
    classID: 4
    script: {fileID: 0}
  m_HasGenericRootTransform: 1
  m_HasMotionFloatCurves: 0
  m_GenerateMotionCurves: 0
  m_Events: []
